{
  "orientation" : 0,
  "updateDelay" : 0.3,
  "cachedDeviceHeight" : 0,
  "contentScale" : 1,
  "cachedDeviceWidth" : 0,
  "sharedPrototype" : 0,
  "propertyPanelToggleStates" : {

  },
  "deviceType" : "fullscreen",
  "projectId" : "742E5DB5-15B6-4E1F-8594-069CB9847F7E",
  "deviceOrientation" : 0,
  "selectedHand" : "",
  "foldedCodeRanges" : [

  ],
  "deviceScale" : 1
}