{
  "_class": "symbolInstance",
  "do_objectID": "4110B2FC-676E-4D46-A1A0-FEB606D3BB3A",
  "exportOptions": {
    "_class": "exportOptions",
    "exportFormats": [
    ],
    "includedLayerIds": [
    ],
    "layerOptions": 0,
    "shouldTrim": false
  },
  "frame": {
    "_class": "rect",
    "constrainProportions": false,
    "height": 24,
    "width": 37,
    "x": 0,
    "y": 40
  },
  "horizontalSpacing": 0,
  "isFlippedHorizontal": false,
  "isFlippedVertical": false,
  "isLocked": false,
  "isVisible": true,
  "layerListExpandedType": 0,
  "masterInfluenceEdgeMaxXPadding": 0,
  "masterInfluenceEdgeMaxYPadding": 1,
  "masterInfluenceEdgeMinXPadding": 0,
  "masterInfluenceEdgeMinYPadding": 1,
  "name": "label",
  "nameIsFixed": true,
  "overrides": {
    "0": {
    },
    "A0DCBC4A-D209-4505-A126-06B7AC82EBFB": "UX",
    "ObjectId": "overrideText"
  },
  "resizingConstraint": 63,
  "resizingType": 0,
  "rotation": 0,
  "shouldBreakMaskChain": false,
  "style": {
    "_class": "style",
    "endDecorationType": 0,
    "miterLimit": 10,
    "startDecorationType": 0
  },
  "symbolID": "E69CEC68-C419-43BA-BDDC-3F09A03D5013",
  "verticalSpacing": 0
}