{
  "_class": "group",
  "do_objectID": "D37F37E5-0812-4D6D-BA39-492993A77E14",
  "exportOptions": {
    "_class": "exportOptions",
    "exportFormats": [
    ],
    "includedLayerIds": [
    ],
    "layerOptions": 0,
    "shouldTrim": false
  },
  "frame": {
    "_class": "rect",
    "constrainProportions": false,
    "height": 53,
    "width": 1250,
    "x": 236,
    "y": 103
  },
  "hasClickThrough": false,
  "isFlippedHorizontal": false,
  "isFlippedVertical": false,
  "isLocked": false,
  "isVisible": true,
  "layerListExpandedType": 0,
  "layers": [
    {
      "class": "group",
      "id": "CF3A159E-CD73-4E56-9039-8BBCF8CC7BB5"
    },
    {
      "class": "group",
      "id": "780775D9-724D-4A91-8F90-8A40E9368F27"
    }
  ],
  "name": "tabs_merge_request",
  "nameIsFixed": false,
  "resizingConstraint": 63,
  "resizingType": 0,
  "rotation": 0,
  "shouldBreakMaskChain": false,
  "style": {
    "_class": "style",
    "endDecorationType": 0,
    "miterLimit": 10,
    "startDecorationType": 0
  }
}