{
  "_class": "group",
  "do_objectID": "0E703A9C-EEDA-46E8-A738-5501D27F3300",
  "exportOptions": {
    "_class": "exportOptions",
    "exportFormats": [
    ],
    "includedLayerIds": [
    ],
    "layerOptions": 0,
    "shouldTrim": false
  },
  "frame": {
    "_class": "rect",
    "constrainProportions": false,
    "height": 32,
    "width": 163,
    "x": 236,
    "y": 112
  },
  "hasClickThrough": false,
  "isFlippedHorizontal": false,
  "isFlippedVertical": false,
  "isLocked": false,
  "isVisible": false,
  "layerListExpandedType": 0,
  "layers": [
    {
      "class": "shapeGroup",
      "id": "3434EFE2-FE82-466B-816B-6C3588262A09"
    },
    {
      "class": "text",
      "id": "29ECF260-3C00-4E90-AB03-89897228FE39"
    },
    {
      "class": "symbolInstance",
      "id": "632957B6-8279-457E-A31D-2A9A549D8444"
    }
  ],
  "name": "global-components/buttons/default/dropdown",
  "nameIsFixed": false,
  "resizingConstraint": 63,
  "resizingType": 0,
  "rotation": 0,
  "shouldBreakMaskChain": false,
  "style": {
    "_class": "style",
    "endDecorationType": 0,
    "miterLimit": 10,
    "startDecorationType": 0
  }
}