{
  "_class": "group",
  "do_objectID": "74B16986-D61E-4D7A-9371-B82C30BB611B",
  "exportOptions": {
    "_class": "exportOptions",
    "exportFormats": [
    ],
    "includedLayerIds": [
    ],
    "layerOptions": 0,
    "shouldTrim": false
  },
  "frame": {
    "_class": "rect",
    "constrainProportions": false,
    "height": 40,
    "width": 220,
    "x": 0,
    "y": 0
  },
  "hasClickThrough": false,
  "isFlippedHorizontal": false,
  "isFlippedVertical": false,
  "isLocked": false,
  "isVisible": true,
  "layerListExpandedType": 0,
  "layers": [
    {
      "class": "shapeGroup",
      "id": "597F11D1-5D53-4CE6-82AE-67C346531CF4"
    },
    {
      "class": "text",
      "id": "A4157166-72FC-4FE6-8F2C-4C31454AFCE7"
    },
    {
      "class": "group",
      "id": "7705FD76-4D74-43D6-9C04-68D57A36C378"
    }
  ],
  "name": "💡tab",
  "nameIsFixed": false,
  "resizingConstraint": 63,
  "resizingType": 0,
  "rotation": 0,
  "shouldBreakMaskChain": false,
  "style": {
    "_class": "style",
    "endDecorationType": 0,
    "miterLimit": 10,
    "startDecorationType": 0
  }
}