{
  "_class": "group",
  "do_objectID": "2714D123-04D0-426C-9EA1-6BE47DC47478",
  "exportOptions": {
    "_class": "exportOptions",
    "exportFormats": [
    ],
    "includedLayerIds": [
    ],
    "layerOptions": 0,
    "shouldTrim": false
  },
  "frame": {
    "_class": "rect",
    "constrainProportions": false,
    "height": 760,
    "width": 290,
    "x": 1210,
    "y": 40
  },
  "hasClickThrough": false,
  "isFlippedHorizontal": false,
  "isFlippedVertical": false,
  "isLocked": false,
  "isVisible": false,
  "layerListExpandedType": 1,
  "layers": [
    {
      "class": "shapeGroup",
      "id": "57CEF78E-C703-4402-8C8B-3A4E2E691EC0"
    },
    {
      "class": "group",
      "id": "8F29B157-13F9-4AB2-BDEB-29B58D321219"
    }
  ],
  "name": "issuable__sidebar--expanded",
  "nameIsFixed": true,
  "resizingConstraint": 63,
  "resizingType": 0,
  "rotation": 0,
  "shouldBreakMaskChain": false,
  "style": {
    "_class": "style",
    "endDecorationType": 0,
    "miterLimit": 10,
    "startDecorationType": 0
  }
}