{
  "_class": "group",
  "do_objectID": "71E960EF-558A-46B8-9DDE-0624E06575DF",
  "exportOptions": {
    "_class": "exportOptions",
    "exportFormats": [
    ],
    "includedLayerIds": [
    ],
    "layerOptions": 0,
    "shouldTrim": false
  },
  "frame": {
    "_class": "rect",
    "constrainProportions": false,
    "height": 28,
    "width": 647,
    "x": 607,
    "y": 222
  },
  "hasClickThrough": false,
  "isFlippedHorizontal": false,
  "isFlippedVertical": false,
  "isLocked": false,
  "isVisible": true,
  "layerListExpandedType": 2,
  "layers": [
    {
      "class": "shapeGroup",
      "id": "5E680A76-C959-4CB7-8DCC-CF5F39A9FB47"
    },
    {
      "class": "shapeGroup",
      "id": "3344A686-1015-4955-8B4D-CAA31258A051"
    },
    {
      "class": "text",
      "id": "D0127775-664F-4D50-A896-D618CF00B4D1"
    }
  ],
  "name": "new_epic copy 4",
  "nameIsFixed": true,
  "resizingConstraint": 63,
  "resizingType": 0,
  "rotation": 0,
  "shouldBreakMaskChain": false,
  "style": {
    "_class": "style",
    "endDecorationType": 0,
    "miterLimit": 10,
    "startDecorationType": 0
  }
}