{
  "_class": "group",
  "do_objectID": "DC2165E2-81DC-4D9D-815C-8177AAF2A71F",
  "exportOptions": {
    "_class": "exportOptions",
    "exportFormats": [
    ],
    "includedLayerIds": [
    ],
    "layerOptions": 0,
    "shouldTrim": false
  },
  "frame": {
    "_class": "rect",
    "constrainProportions": false,
    "height": 24,
    "width": 775,
    "x": 159,
    "y": 229
  },
  "hasClickThrough": false,
  "isFlippedHorizontal": false,
  "isFlippedVertical": false,
  "isLocked": false,
  "isVisible": true,
  "layerListExpandedType": 2,
  "layers": [
    {
      "class": "shapeGroup",
      "id": "A699BAAD-EE33-46F5-9BB0-C0144C0FFA87"
    },
    {
      "class": "shapeGroup",
      "id": "5FE24A19-AF84-45F9-A7F1-1F88248492DD"
    },
    {
      "class": "text",
      "id": "9BFBA07F-F1CC-4128-8E50-BA4F314424EB"
    }
  ],
  "name": "epic",
  "nameIsFixed": true,
  "resizingConstraint": 63,
  "resizingType": 0,
  "rotation": 0,
  "shouldBreakMaskChain": false,
  "style": {
    "_class": "style",
    "endDecorationType": 0,
    "miterLimit": 10,
    "startDecorationType": 0
  }
}