{
  "_class": "group",
  "do_objectID": "8F29B157-13F9-4AB2-BDEB-29B58D321219",
  "exportOptions": {
    "_class": "exportOptions",
    "exportFormats": [
    ],
    "includedLayerIds": [
    ],
    "layerOptions": 0,
    "shouldTrim": false
  },
  "frame": {
    "_class": "rect",
    "constrainProportions": false,
    "height": 704,
    "width": 258,
    "x": 16,
    "y": 0
  },
  "hasClickThrough": false,
  "isFlippedHorizontal": false,
  "isFlippedVertical": false,
  "isLocked": false,
  "isVisible": true,
  "layerListExpandedType": 2,
  "layers": [
    {
      "class": "symbolInstance",
      "id": "8275156D-CBFC-4CE5-84FB-0589A176AA2A"
    },
    {
      "class": "symbolInstance",
      "id": "DCDEE90A-F8A8-4B67-B399-2A37614FAD22"
    },
    {
      "class": "symbolInstance",
      "id": "5849F05D-98D8-40EB-A59E-FB76FD94CC73"
    },
    {
      "class": "symbolInstance",
      "id": "53858939-9B66-4BA1-B861-8E6E52BA03AD"
    },
    {
      "class": "symbolInstance",
      "id": "87FF2767-380C-4A5B-A8A9-437B84351102"
    },
    {
      "class": "symbolInstance",
      "id": "8F12A8E0-D5FE-43F8-9B68-8CB1B1CE0130"
    },
    {
      "class": "symbolInstance",
      "id": "98B8FD8E-4540-4EF8-9433-02D93533EBB5"
    },
    {
      "class": "symbolInstance",
      "id": "C50F669E-DA5F-4042-A246-FC69DC822DD7"
    },
    {
      "class": "symbolInstance",
      "id": "7B140DB7-1E03-46E2-A107-0C3CB5524A4C"
    },
    {
      "class": "symbolInstance",
      "id": "42E23EB7-6F6C-4FAB-81D1-CEF15FAFE380"
    },
    {
      "class": "symbolInstance",
      "id": "5854B04E-2497-4135-B45E-50B6E5757CE4"
    }
  ],
  "name": "top-aligned",
  "nameIsFixed": true,
  "resizingConstraint": 12,
  "resizingType": 0,
  "rotation": 0,
  "shouldBreakMaskChain": false,
  "style": {
    "_class": "style",
    "endDecorationType": 0,
    "miterLimit": 10,
    "startDecorationType": 0
  }
}