{
  "_class": "shapePath",
  "booleanOperation": -1,
  "do_objectID": "35E81634-121C-4F30-BD05-5049E66F22C0",
  "edited": true,
  "exportOptions": {
    "_class": "exportOptions",
    "exportFormats": [
    ],
    "includedLayerIds": [
    ],
    "layerOptions": 0,
    "shouldTrim": false
  },
  "frame": {
    "_class": "rect",
    "constrainProportions": false,
    "height": 12,
    "width": 10,
    "x": 0,
    "y": 0
  },
  "isFlippedHorizontal": false,
  "isFlippedVertical": false,
  "isLocked": false,
  "isVisible": true,
  "layerListExpandedType": 0,
  "name": "Path",
  "nameIsFixed": false,
  "path": {
    "_class": "path",
    "isClosed": true,
    "pointRadiusBehaviour": 1,
    "points": [
      {
        "_class": "curvePoint",
        "cornerRadius": 0,
        "curveFrom": "{1, 0.25}",
        "curveMode": 4,
        "curveTo": "{1, 0.11192881254230158}",
        "hasCurveFrom": false,
        "hasCurveTo": true,
        "point": "{1, 0.25}"
      },
      {
        "_class": "curvePoint",
        "cornerRadius": 0,
        "curveFrom": "{0.83478074122961599, 0.25}",
        "curveMode": 4,
        "curveTo": "{0.85268554687499998, 0.25}",
        "hasCurveFrom": true,
        "hasCurveTo": false,
        "point": "{0.85268554687499998, 0.25}"
      },
      {
        "_class": "curvePoint",
        "cornerRadius": 0,
        "curveFrom": "{0.80000000000000004, 0.25325721676566615}",
        "curveMode": 4,
        "curveTo": "{0.81718755928959974, 0.25111184973995776}",
        "hasCurveFrom": false,
        "hasCurveTo": true,
        "point": "{0.80000000000000004, 0.25325721676566615}"
      },
      {
        "_class": "curvePoint",
        "cornerRadius": 0,
        "curveFrom": "{0.80000000000000004, 0.20397627084743394}",
        "curveMode": 4,
        "curveTo": "{0.80000000000000004, 0.24999999999999992}",
        "hasCurveFrom": true,
        "hasCurveTo": false,
        "point": "{0.80000000000000004, 0.24999999999999992}"
      },
      {
        "_class": "curvePoint",
        "cornerRadius": 0,
        "curveFrom": "{0.69999999999999996, 0.16666666666666666}",
        "curveMode": 4,
        "curveTo": "{0.75522847498307921, 0.16666666666666666}",
        "hasCurveFrom": false,
        "hasCurveTo": true,
        "point": "{0.69999999999999996, 0.16666666666666666}"
      },
      {
        "_class": "curvePoint",
        "cornerRadius": 0,
        "curveFrom": "{0.24477152501692059, 0.16666666666666666}",
        "curveMode": 4,
        "curveTo": "{0.29999999999999999, 0.16666666666666666}",
        "hasCurveFrom": true,
        "hasCurveTo": false,
        "point": "{0.29999999999999999, 0.16666666666666666}"
      },
      {
        "_class": "curvePoint",
        "cornerRadius": 0,
        "curveFrom": "{0.20000000000000001, 0.25}",
        "curveMode": 4,
        "curveTo": "{0.20000000000000001, 0.20397627084743389}",
        "hasCurveFrom": false,
        "hasCurveTo": true,
        "point": "{0.20000000000000001, 0.25}"
      },
      {
        "_class": "curvePoint",
        "cornerRadius": 0,
        "curveFrom": "{0.20000000000000001, 0.79602372915256592}",
        "curveMode": 4,
        "curveTo": "{0.20000000000000001, 0.75}",
        "hasCurveFrom": true,
        "hasCurveTo": false,
        "point": "{0.20000000000000001, 0.75}"
      },
      {
        "_class": "curvePoint",
        "cornerRadius": 0,
        "curveFrom": "{0.29999999999999999, 0.83333333333333337}",
        "curveMode": 4,
        "curveTo": "{0.24477152501692082, 0.83333333333333337}",
        "hasCurveFrom": false,
        "hasCurveTo": true,
        "point": "{0.29999999999999999, 0.83333333333333337}"
      },
      {
        "_class": "curvePoint",
        "cornerRadius": 0,
        "curveFrom": "{0.5, 0.83333333333333337}",
        "curveMode": 1,
        "curveTo": "{0.5, 0.83333333333333337}",
        "hasCurveFrom": false,
        "hasCurveTo": false,
        "point": "{0.5, 0.83333333333333337}"
      },
      {
        "_class": "curvePoint",
        "cornerRadius": 0,
        "curveFrom": "{0.5, 1}",
        "curveMode": 1,
        "curveTo": "{0.5, 1}",
        "hasCurveFrom": false,
        "hasCurveTo": false,
        "point": "{0.5, 1}"
      },
      {
        "_class": "curvePoint",
        "cornerRadius": 0,
        "curveFrom": "{0.134314575050762, 1}",
        "curveMode": 4,
        "curveTo": "{0.29999999999999999, 1}",
        "hasCurveFrom": true,
        "hasCurveTo": false,
        "point": "{0.29999999999999999, 1}"
      },
      {
        "_class": "curvePoint",
        "cornerRadius": 0,
        "curveFrom": "{0, 0.75}",
        "curveMode": 4,
        "curveTo": "{2.0290612532945333e-17, 0.88807118745769831}",
        "hasCurveFrom": false,
        "hasCurveTo": true,
        "point": "{0, 0.75}"
      },
      {
        "_class": "curvePoint",
        "cornerRadius": 0,
        "curveFrom": "{-2.0290612532945333e-17, 0.11192881254230169}",
        "curveMode": 4,
        "curveTo": "{0, 0.25}",
        "hasCurveFrom": true,
        "hasCurveTo": false,
        "point": "{0, 0.25}"
      },
      {
        "_class": "curvePoint",
        "cornerRadius": 0,
        "curveFrom": "{0.29999999999999999, 0}",
        "curveMode": 4,
        "curveTo": "{0.13431457505076194, 2.5363265666181668e-17}",
        "hasCurveFrom": false,
        "hasCurveTo": true,
        "point": "{0.29999999999999999, 0}"
      },
      {
        "_class": "curvePoint",
        "cornerRadius": 0,
        "curveFrom": "{0.86568542494923795, -2.5363265666181668e-17}",
        "curveMode": 4,
        "curveTo": "{0.69999999999999996, 0}",
        "hasCurveFrom": true,
        "hasCurveTo": false,
        "point": "{0.69999999999999996, 0}"
      }
    ]
  },
  "resizingConstraint": 63,
  "resizingType": 0,
  "rotation": 0,
  "shouldBreakMaskChain": false
}