{
  "_class": "symbolInstance",
  "do_objectID": "D6C912AE-CFEA-4A1B-8475-2B85CB88EE8A",
  "exportOptions": {
    "_class": "exportOptions",
    "exportFormats": [
    ],
    "includedLayerIds": [
    ],
    "layerOptions": 0,
    "shouldTrim": false
  },
  "frame": {
    "_class": "rect",
    "constrainProportions": false,
    "height": 32,
    "width": 58,
    "x": 202,
    "y": 0
  },
  "horizontalSpacing": 0,
  "isFlippedHorizontal": false,
  "isFlippedVertical": false,
  "isLocked": false,
  "isVisible": true,
  "layerListExpandedType": 0,
  "masterInfluenceEdgeMaxXPadding": 0,
  "masterInfluenceEdgeMaxYPadding": 0,
  "masterInfluenceEdgeMinXPadding": 0,
  "masterInfluenceEdgeMinYPadding": 0,
  "name": "topbar/molecules/tab",
  "nameIsFixed": true,
  "overrides": {
    "0": {
    },
    "02AF2790-B124-4C56-B01E-7A082BBAF72A": "Groups",
    "ObjectId": "overrideText"
  },
  "resizingConstraint": 63,
  "resizingType": 0,
  "rotation": 0,
  "shouldBreakMaskChain": false,
  "style": {
    "_class": "style",
    "endDecorationType": 0,
    "miterLimit": 10,
    "startDecorationType": 0
  },
  "symbolID": "B81ACBC1-1542-4DDC-86A8-A95DC89FA0FB",
  "verticalSpacing": 0
}