{
  "_class": "group",
  "do_objectID": "8B80D5E3-F8C6-4864-A9C0-FA40D114B8A8",
  "exportOptions": {
    "_class": "exportOptions",
    "exportFormats": [
    ],
    "includedLayerIds": [
    ],
    "layerOptions": 0,
    "shouldTrim": false
  },
  "frame": {
    "_class": "rect",
    "constrainProportions": false,
    "height": 1587,
    "width": 1459,
    "x": 343,
    "y": 144
  },
  "hasClickThrough": false,
  "isFlippedHorizontal": false,
  "isFlippedVertical": false,
  "isLocked": false,
  "isVisible": true,
  "layerListExpandedType": 0,
  "layers": [
    {
      "class": "group",
      "id": "BEE23AFF-6E9C-4C88-9B66-A5708BAB57F9"
    },
    {
      "class": "symbolInstance",
      "id": "750255DB-E78E-41F1-8002-DB4FE2FA46D4"
    },
    {
      "class": "symbolInstance",
      "id": "A74B24CD-CDFB-4003-9510-C5D22A607A64"
    },
    {
      "class": "symbolInstance",
      "id": "E7E44773-E702-4DFE-8DBD-5DE2914E6514"
    },
    {
      "class": "symbolInstance",
      "id": "E364D872-CE25-4E4E-BA30-343CB8A9B25D"
    },
    {
      "class": "symbolInstance",
      "id": "56569E62-41EA-4C5F-8769-4FD68360C81E"
    },
    {
      "class": "symbolInstance",
      "id": "CF947802-5A0F-458E-A814-B73837737332"
    },
    {
      "class": "symbolInstance",
      "id": "35388408-BFFA-44AC-B9CB-28E87706A34E"
    },
    {
      "class": "symbolInstance",
      "id": "42E7BFCE-EC01-4FCF-B3B0-73DC8F782336"
    },
    {
      "class": "symbolInstance",
      "id": "444DC1CE-368E-4C1F-B80A-AD8EA35968AB"
    },
    {
      "class": "symbolInstance",
      "id": "4D25452B-74A4-418F-BF9B-26AA34C6AD4B"
    },
    {
      "class": "symbolInstance",
      "id": "B41DEE82-F94E-4849-A03E-72101CFBE3B2"
    },
    {
      "class": "symbolInstance",
      "id": "C916AA12-C6D8-4B77-BBDC-7016E59656DA"
    },
    {
      "class": "symbolInstance",
      "id": "0249647B-864E-4CFF-ACBA-400A8C10F892"
    },
    {
      "class": "symbolInstance",
      "id": "CD4B4A15-ED46-4DF6-91F8-56DC5DECF7A0"
    },
    {
      "class": "symbolInstance",
      "id": "3D7AA63B-1FB9-4F4B-87EC-322BDC13EB58"
    },
    {
      "class": "symbolInstance",
      "id": "29F8ED0F-EEAE-4320-87BF-12F25654A8AE"
    },
    {
      "class": "symbolInstance",
      "id": "BD2776F1-DF43-4BB5-A854-52EF923EEB7C"
    },
    {
      "class": "symbolInstance",
      "id": "9CA5C4AF-C4F8-4613-81B8-E7BBDCB1AEB9"
    },
    {
      "class": "symbolInstance",
      "id": "03059650-1874-4F3D-A30F-DD4901E75154"
    },
    {
      "class": "symbolInstance",
      "id": "11398EE1-2550-49DE-A21C-ADD4ADA0C9E6"
    },
    {
      "class": "symbolInstance",
      "id": "E69E8B25-4C5C-4757-9CE6-6BFCACBBF8EA"
    },
    {
      "class": "symbolInstance",
      "id": "ECD0BADD-C3BC-450B-8C14-49714DAE1ABA"
    },
    {
      "class": "symbolInstance",
      "id": "53C6345F-25AD-4CE0-9171-AA706EB2D164"
    },
    {
      "class": "symbolInstance",
      "id": "0EF0CE4C-26A6-4C0E-BD01-86D0E5ECD889"
    },
    {
      "class": "symbolInstance",
      "id": "2FFD47EB-C7BD-4DB4-B9E3-1034D946D84D"
    },
    {
      "class": "symbolInstance",
      "id": "BE111E4A-D287-4521-8A72-5CB67398DB68"
    },
    {
      "class": "symbolInstance",
      "id": "F6B48AF0-1D2B-4551-A615-E08BCB53F83C"
    },
    {
      "class": "symbolInstance",
      "id": "DBBFBC8B-39DD-432B-B07C-D2628D576425"
    },
    {
      "class": "symbolInstance",
      "id": "61DC95A3-F04D-4F06-AE01-38613B6E2DE4"
    },
    {
      "class": "symbolInstance",
      "id": "DE7ADF55-115A-48D1-BFF6-F65D40CC8529"
    },
    {
      "class": "symbolInstance",
      "id": "50F51CCB-4AFC-4DEC-82D6-0BA3A7301376"
    },
    {
      "class": "symbolInstance",
      "id": "1FB54CCE-A337-49E6-AED2-955726E1B969"
    },
    {
      "class": "symbolInstance",
      "id": "55BFB354-AE20-41E0-B5F6-C23ED6E23B1A"
    },
    {
      "class": "symbolInstance",
      "id": "97FE5B7B-868D-441F-A51D-4DE4BFEDFF34"
    },
    {
      "class": "symbolInstance",
      "id": "CA739C8E-7B98-4251-B4D8-C6F2A026414A"
    },
    {
      "class": "symbolInstance",
      "id": "1C93DB69-4799-48FE-9F72-A3460C9A8999"
    },
    {
      "class": "symbolInstance",
      "id": "17B54287-3C49-435F-891C-5EF3D82EB3BF"
    },
    {
      "class": "symbolInstance",
      "id": "A8D5DCFB-97DD-4E3E-94C0-F4F6F224563A"
    },
    {
      "class": "symbolInstance",
      "id": "63D64CC3-47A4-4794-970C-2D76F075558A"
    },
    {
      "class": "symbolInstance",
      "id": "21077B3E-05BE-4375-B76F-6777C97F7203"
    },
    {
      "class": "symbolInstance",
      "id": "35BB699D-B2E9-4988-B06B-0FA15BAA6D21"
    },
    {
      "class": "symbolInstance",
      "id": "0FDDE6BB-940C-4D25-B4A1-9BD9AB48A733"
    },
    {
      "class": "symbolInstance",
      "id": "5DF09102-11B5-4F79-9060-567CB0F33D7F"
    },
    {
      "class": "symbolInstance",
      "id": "C0E01E19-1617-4F0E-90B2-7097714A1C30"
    },
    {
      "class": "symbolInstance",
      "id": "4F0E31EA-ABA4-401A-858E-0069F58BBD4A"
    },
    {
      "class": "symbolInstance",
      "id": "7AED8C70-DE16-401B-AF1A-7FFCAEF6F8AD"
    },
    {
      "class": "symbolInstance",
      "id": "6E5A08C2-E119-4A3A-B189-400F7FE8580A"
    },
    {
      "class": "symbolInstance",
      "id": "CBBF7B0B-B2E7-4D23-8A08-599845C97819"
    },
    {
      "class": "symbolInstance",
      "id": "A146C867-E673-4326-8BE9-AAB639D72AF7"
    },
    {
      "class": "symbolInstance",
      "id": "64A922C8-5138-4D7E-A74A-E4D7E0CD617F"
    },
    {
      "class": "symbolInstance",
      "id": "3CB2FE7D-6E8D-48F1-B208-17ADAD7298CB"
    },
    {
      "class": "symbolInstance",
      "id": "7BA7392A-0265-45D6-A784-020988BA40AA"
    },
    {
      "class": "symbolInstance",
      "id": "F20E9E10-5D8F-465C-A26B-85DB11528A97"
    },
    {
      "class": "symbolInstance",
      "id": "6E5C55C8-84B3-4C3D-9034-85A4DC094114"
    }
  ],
  "name": "weekenddays",
  "nameIsFixed": true,
  "resizingConstraint": 63,
  "resizingType": 0,
  "rotation": 0,
  "shouldBreakMaskChain": false,
  "style": {
    "_class": "style",
    "endDecorationType": 0,
    "miterLimit": 10,
    "startDecorationType": 0
  }
}