{
  "_class": "shapePath",
  "booleanOperation": 1,
  "do_objectID": "3A36B5DA-D069-462D-A009-08ABDFBC0B27",
  "edited": true,
  "exportOptions": {
    "_class": "exportOptions",
    "exportFormats": [
    ],
    "includedLayerIds": [
    ],
    "layerOptions": 0,
    "shouldTrim": false
  },
  "frame": {
    "_class": "rect",
    "constrainProportions": false,
    "height": 12,
    "width": 10,
    "x": 2,
    "y": 2
  },
  "isFlippedHorizontal": false,
  "isFlippedVertical": false,
  "isLocked": false,
  "isVisible": true,
  "layerListExpandedType": 0,
  "name": "Rectangle 41",
  "nameIsFixed": false,
  "path": {
    "_class": "path",
    "isClosed": true,
    "pointRadiusBehaviour": 1,
    "points": [
      {
        "_class": "curvePoint",
        "cornerRadius": 0,
        "curveFrom": "{0.089543050033841304, 0}",
        "curveMode": 4,
        "curveTo": "{0.20000000000000001, 0}",
        "hasCurveFrom": true,
        "hasCurveTo": false,
        "point": "{0.20000000000000001, 0}"
      },
      {
        "_class": "curvePoint",
        "cornerRadius": 0,
        "curveFrom": "{0, 0.16666666666666666}",
        "curveMode": 4,
        "curveTo": "{0, 0.074619208361534461}",
        "hasCurveFrom": false,
        "hasCurveTo": true,
        "point": "{0, 0.16666666666666666}"
      },
      {
        "_class": "curvePoint",
        "cornerRadius": 0,
        "curveFrom": "{0, 0.92538079163846543}",
        "curveMode": 4,
        "curveTo": "{0, 0.83333333333333337}",
        "hasCurveFrom": true,
        "hasCurveTo": false,
        "point": "{0, 0.83333333333333337}"
      },
      {
        "_class": "curvePoint",
        "cornerRadius": 0,
        "curveFrom": "{0.20000000000000001, 1}",
        "curveMode": 4,
        "curveTo": "{0.089543050033841484, 1}",
        "hasCurveFrom": false,
        "hasCurveTo": true,
        "point": "{0.20000000000000001, 1}"
      },
      {
        "_class": "curvePoint",
        "cornerRadius": 0,
        "curveFrom": "{0.91045694996615834, 1}",
        "curveMode": 4,
        "curveTo": "{0.80000000000000004, 1}",
        "hasCurveFrom": true,
        "hasCurveTo": false,
        "point": "{0.80000000000000004, 1}"
      },
      {
        "_class": "curvePoint",
        "cornerRadius": 0,
        "curveFrom": "{1, 0.83333333333333337}",
        "curveMode": 4,
        "curveTo": "{1, 0.92538079163846521}",
        "hasCurveFrom": false,
        "hasCurveTo": true,
        "point": "{1, 0.83333333333333337}"
      },
      {
        "_class": "curvePoint",
        "cornerRadius": 0,
        "curveFrom": "{1, 0.28451779686442458}",
        "curveMode": 1,
        "curveTo": "{1, 0.28451779686442458}",
        "hasCurveFrom": false,
        "hasCurveTo": false,
        "point": "{1, 0.28451779686442458}"
      },
      {
        "_class": "curvePoint",
        "cornerRadius": 0,
        "curveFrom": "{0.6585786437626906, 0}",
        "curveMode": 1,
        "curveTo": "{0.6585786437626906, 0}",
        "hasCurveFrom": false,
        "hasCurveTo": false,
        "point": "{0.6585786437626906, 0}"
      }
    ]
  },
  "resizingConstraint": 63,
  "resizingType": 0,
  "rotation": 0,
  "shouldBreakMaskChain": false
}